Chapter 4 Data manipulation | Data exploration and statistics with R and the tidyverse
…
Do group-wise operations \(\rightarrow\) group_by()

Join with other tables \(\rightarrow\) left_join(),right_join(), inner_join(), anti_join(), full_join()

I have the verbs, now I can associate them to make a sentence ! All those functions take as first argument a dataframe, which makes it very easy when chaining them with the pipe.

read.csv("Data/Sports/Activities.csv") %>% 
  select(activityType,avgSpeed,distance,startLongitude,startLatitude,sportType) %>% #select some metrics
  mutate(distance=distance/100) %>% # distances are in decameter (?)
  filter(activityType!="other") %>% # remove activities "other
  group_by(activityType) %>% 
  summarise(total_dist=mean(distance))

## # A tibble: 22 × 2
##    activityType            total_dist
##    <chr>                        <dbl>
##  1 cross_country_skiing_ws     16717.
##  2 cycling                     34124.
##  3 cyclocross                  41210.
##  4 hiking                      10678.
##  5 indoor_cardio                  NA 
##  6 indoor_cycling                 NA 
##  7 indoor_running               2311.
##  8 lap_swimming                 3014.
##  9 multi_sport                 63873.
## 10 open_water_swimming          2359.
## # … with 12 more rows
…
The data will almost never come in a ready-to-use format. Wrangling the data, beyond cleaning it also sometimes imply to reshape it so that it conforms to the tidy principles. For that you have 2 functions :

pivot_longer() which will convert columns into rows

pivot_wider(), the reciprocate operation, which will convert rows into columns

For example, we can chose that an observation is the combination of an activity and a metric. This representation can be useful in some cases (see 6).

dat_long <- dat %>% 
  select(activityId,where(is.numeric)) %>% 
  pivot_longer(-activityId,names_to="metric",values_to="value")
dat_long

## # A tibble: 426,972 × 3
##    activityId metric             value
##    <chr>      <chr>              <dbl>
##  1 8117908979 beginTimestamp  1.64e+12
##  2 8117908979 startTimeGmt    1.64e+12
##  3 8117908979 startTimeLocal  1.64e+12
##  4 8117908979 duration        4.27e+ 6
##  5 8117908979 distance        3.4 e+ 5
##  6 8117908979 avgSpeed        9.93e- 2
##  7 8117908979 avgHr          NA       
##  8 8117908979 maxHr          NA       
##  9 8117908979 avgPower       NA       
## 10 8117908979 avgBikeCadence NA       
## # … with 426,962 more rows

With this format you can get summary statistics for all metrics also easily :

group_by(dat_long,metric) %>% 
  summarise(mean_val=mean(value,na.rm=T))

## # A tibble: 69 × 2
##    metric                   mean_val
##    <chr>                       <dbl>
##  1 activeLengths            62.1    
##  2 activeSets                0      
##  3 aerobicTrainingEffect     2.64   
##  4 anaerobicTrainingEffect   0.270  
##  5 atpActivity               0      
##  6 autoCalcCalories          0.00621
##  7 avgBikeCadence           90.1    
##  8 avgDoubleCadence        162.     
##  9 avgFractionalCadence      0.0806 
## 10 avgGroundContactBalance  49.3    
## # … with 59 more rows
…
