Chapter 6 Multivariate analysis and dimension reduction | Data exploration and statistics with R and the tidyverse
…
This solution can be also used if you want to superpose different geometries (bars and lines, bars and hlines,…), and is in this case legal :D

6.1.1.5.2 Do it with the tidy philosophy

You can reformulate this task as : I want to represent the distribution of one unique variable for 2 subgroups : distance and duration. I have to reshape the data first to create such a variable. For that I will use tidyr::pivot_longer() which helps me to transform columns into rows.

reshaped <- select(dat_clean,duration,distance) %>% 
  pivot_longer(cols = everything(),names_to="latent_variable",values_to="values")
reshaped

## # A tibble: 11,600 × 2
##    latent_variable values
##    <chr>            <dbl>
##  1 duration         71.2 
##  2 distance          3.4 
##  3 duration         37.9 
##  4 distance         27.7 
##  5 duration         28.4 
##  6 distance         16.4 
##  7 duration         70.4 
##  8 distance         15.0 
##  9 duration         10.4 
## 10 distance          6.24
## # … with 11,590 more rows
…
