Chapter 6 Multivariate analysis and dimension reduction | Data exploration and statistics with R and the tidyverse
…
This solution can be also used if you want to superpose different geometries (bars and lines, bars and hlines,…), and is in this case legal :D

6.1.1.5.2 Do it with the tidy philosophy

You can reformulate this task as : I want to represent the distribution of one unique variable for 3 subgroups : age, churn and usage. I have to reshape the data first to create such a variable. For that I will use tidyr::pivot_longer() which helps me to transform columns into rows

reshaped <- select(dat_clean,duration,distance) %>% 
  pivot_longer(cols = everything(),names_to="latent_variable",values_to="values")
reshaped

## # A tibble: 10,250 x 2
##    latent_variable    values
##    <chr>               <dbl>
##  1 duration         3640221.
##  2 distance          300000 
##  3 duration        15064570.
##  4 distance        12293220.
##  5 duration        10382433.
##  6 distance         8360927.
##  7 duration         5393830.
##  8 distance         1792890.
##  9 duration         3626825.
## 10 distance         3492347.
## # … with 10,240 more rows
…
