Chapter 5 Statistics | Data exploration and statistics with R and the tidyverse
…
Another solution is to use what you’ve learned in the previous section (@ref()) : aggregation !

group_by(dat,activityType) %>% 
  summarise(number=n(),proportion=n()/nrow(dat))

## # A tibble: 23 x 3
##    activityType            number proportion
##    <chr>                    <int>      <dbl>
##  1 cross_country_skiing_ws     38   0.00689 
##  2 cycling                   2174   0.394   
##  3 cyclocross                   1   0.000181
##  4 hiking                       7   0.00127 
##  5 indoor_cardio               32   0.00580 
##  6 indoor_cycling             331   0.0600  
##  7 indoor_running              13   0.00236 
##  8 lap_swimming               852   0.155   
##  9 multi_sport                 52   0.00943 
## 10 open_water_swimming         69   0.0125  
## # … with 13 more rows
…
